<?xml version="1.0" encoding="UTF-8" standalone="no"?>
<!-- Created with Inkscape (http://www.inkscape.org/) -->

<svg
   xmlns:dc="http://purl.org/dc/elements/1.1/"
   xmlns:cc="http://creativecommons.org/ns#"
   xmlns:rdf="http://www.w3.org/1999/02/22-rdf-syntax-ns#"
   xmlns:svg="http://www.w3.org/2000/svg"
   xmlns="http://www.w3.org/2000/svg"
   xmlns:sodipodi="http://sodipodi.sourceforge.net/DTD/sodipodi-0.dtd"
   xmlns:inkscape="http://www.inkscape.org/namespaces/inkscape"
   width="1024"
   height="1024"
   viewBox="0 0 270.93333 270.93334"
   version="1.1"
   id="svg8"
   inkscape:version="0.92.3 (2405546, 2018-03-11)"
   sodipodi:docname="BlockShapes.svg">
  <defs
     id="defs2" />
  <sodipodi:namedview
     id="base"
     pagecolor="#808080"
     bordercolor="#666666"
     borderopacity="1.0"
     inkscape:pageopacity="0"
     inkscape:pageshadow="2"
     inkscape:zoom="1"
     inkscape:cx="364.65906"
     inkscape:cy="826.03361"
     inkscape:document-units="mm"
     inkscape:current-layer="layer1"
     showgrid="true"
     units="px"
     inkscape:showpageshadow="false"
     inkscape:snap-bbox="true"
     inkscape:snap-bbox-edge-midpoints="true"
     inkscape:measure-start="0,0"
     inkscape:measure-end="0,0"
     inkscape:window-width="1920"
     inkscape:window-height="1061"
     inkscape:window-x="0"
     inkscape:window-y="0"
     inkscape:window-maximized="1">
    <inkscape:grid
       type="xygrid"
       id="grid815"
       empspacing="16"
       spacingy="1.0583333"
       spacingx="1.0583333" />
  </sodipodi:namedview>
  <metadata
     id="metadata5">
    <rdf:RDF>
      <cc:Work
         rdf:about="">
        <dc:format>image/svg+xml</dc:format>
        <dc:type
           rdf:resource="http://purl.org/dc/dcmitype/StillImage" />
        <dc:title></dc:title>
      </cc:Work>
    </rdf:RDF>
  </metadata>
  <g
     inkscape:label="Layer 1"
     inkscape:groupmode="layer"
     id="layer1"
     transform="translate(0,-26.06664)">
    <path
       style="color:#000000;clip-rule:nonzero;display:inline;overflow:visible;visibility:visible;opacity:1;isolation:auto;mix-blend-mode:normal;color-interpolation:sRGB;color-interpolation-filters:linearRGB;solid-color:#000000;solid-opacity:1;vector-effect:none;fill:#7020ff;fill-opacity:0.97115386;fill-rule:nonzero;stroke:none;stroke-width:16.53543472;stroke-linecap:round;stroke-linejoin:round;stroke-miterlimit:23;stroke-dasharray:none;stroke-dashoffset:0;stroke-opacity:0.17307691;marker:none;color-rendering:auto;image-rendering:auto;shape-rendering:auto;text-rendering:auto;enable-background:accumulate"
       d="M 64 8 A 56 55.999996 0 0 0 8 64 L 64 64 L 64 8 z "
       transform="matrix(0.26458333,0,0,0.26458333,0,26.06664)"
       id="path817" />
    <path
       style="color:#000000;clip-rule:nonzero;display:inline;overflow:visible;visibility:visible;opacity:1;isolation:auto;mix-blend-mode:normal;color-interpolation:sRGB;color-interpolation-filters:linearRGB;solid-color:#000000;solid-opacity:1;vector-effect:none;fill:#3a00a2;fill-opacity:1;fill-rule:nonzero;stroke:none;stroke-width:17.49581245;stroke-linecap:round;stroke-linejoin:round;stroke-miterlimit:23;stroke-dasharray:none;stroke-dashoffset:0;stroke-opacity:0.17307691;marker:none;color-rendering:auto;image-rendering:auto;shape-rendering:auto;text-rendering:auto;enable-background:accumulate;font-variant-east_asian:normal"
       d="M 64 16 A 48.000003 47.999999 0 0 0 16 64 L 64 64 L 64 16 z "
       id="ellipse819"
       transform="matrix(0.26458333,0,0,0.26458333,0,26.06664)" />
    <rect
       style="color:#000000;clip-rule:nonzero;display:inline;overflow:visible;visibility:visible;opacity:1;isolation:auto;mix-blend-mode:normal;color-interpolation:sRGB;color-interpolation-filters:linearRGB;solid-color:#000000;solid-opacity:1;vector-effect:none;fill:#3a00a2;fill-opacity:1;fill-rule:nonzero;stroke:none;stroke-width:4.62910056;stroke-linecap:round;stroke-linejoin:round;stroke-miterlimit:23;stroke-dasharray:none;stroke-dashoffset:0;stroke-opacity:0.17307691;marker:none;color-rendering:auto;image-rendering:auto;shape-rendering:auto;text-rendering:auto;enable-background:accumulate;font-variant-east_asian:normal"
       id="rect827"
       width="16.933332"
       height="12.7"
       x="16.933332"
       y="30.299982" />
    <rect
       style="color:#000000;clip-rule:nonzero;display:inline;overflow:visible;visibility:visible;opacity:1;isolation:auto;mix-blend-mode:normal;color-interpolation:sRGB;color-interpolation-filters:linearRGB;solid-color:#000000;solid-opacity:1;vector-effect:none;fill:#7020ff;fill-opacity:0.97115383;fill-rule:nonzero;stroke:none;stroke-width:4.37500038;stroke-linecap:round;stroke-linejoin:round;stroke-miterlimit:23;stroke-dasharray:none;stroke-dashoffset:0;stroke-opacity:0.17307691;marker:none;color-rendering:auto;image-rendering:auto;shape-rendering:auto;text-rendering:auto;enable-background:accumulate;font-variant-east_asian:normal"
       id="rect829"
       width="16.933332"
       height="2.1166666"
       x="16.933332"
       y="28.183315" />
    <path
       style="color:#000000;clip-rule:nonzero;display:inline;overflow:visible;visibility:visible;opacity:1;isolation:auto;mix-blend-mode:normal;color-interpolation:sRGB;color-interpolation-filters:linearRGB;solid-color:#000000;solid-opacity:1;vector-effect:none;fill:#7020ff;fill-opacity:0.97115383;fill-rule:nonzero;stroke:none;stroke-width:16.53543472;stroke-linecap:round;stroke-linejoin:round;stroke-miterlimit:23;stroke-dasharray:none;stroke-dashoffset:0;stroke-opacity:0.17307691;marker:none;color-rendering:auto;image-rendering:auto;shape-rendering:auto;text-rendering:auto;enable-background:accumulate;font-variant-east_asian:normal"
       d="M 8 64 A 7.9999996 7.9999996 0 0 1 0 72 L 0 128 L 64 128 L 64 64 L 8 64 z "
       transform="matrix(0.26458333,0,0,0.26458333,0,26.06664)"
       id="rect845" />
    <path
       style="color:#000000;clip-rule:nonzero;display:inline;overflow:visible;visibility:visible;opacity:1;isolation:auto;mix-blend-mode:normal;color-interpolation:sRGB;color-interpolation-filters:linearRGB;solid-color:#000000;solid-opacity:1;vector-effect:none;fill:#3a00a2;fill-opacity:1;fill-rule:nonzero;stroke:none;stroke-width:17.49581146;stroke-linecap:round;stroke-linejoin:round;stroke-miterlimit:23;stroke-dasharray:none;stroke-dashoffset:0;stroke-opacity:0.17307691;marker:none;color-rendering:auto;image-rendering:auto;shape-rendering:auto;text-rendering:auto;enable-background:accumulate"
       d="M 16 64 A 15.999999 15.999999 0 0 1 0 80 L 0 128 L 64 128 L 64 64 L 16 64 z "
       transform="matrix(0.26458333,0,0,0.26458333,0,26.06664)"
       id="rect850" />
    <rect
       y="30.299982"
       x="33.866665"
       height="12.7"
       width="16.933332"
       id="rect907"
       style="color:#000000;clip-rule:nonzero;display:inline;overflow:visible;visibility:visible;opacity:1;isolation:auto;mix-blend-mode:normal;color-interpolation:sRGB;color-interpolation-filters:linearRGB;solid-color:#000000;solid-opacity:1;vector-effect:none;fill:#3a00a2;fill-opacity:1;fill-rule:nonzero;stroke:none;stroke-width:4.62910032;stroke-linecap:round;stroke-linejoin:round;stroke-miterlimit:23;stroke-dasharray:none;stroke-dashoffset:0;stroke-opacity:0.17307691;marker:none;color-rendering:auto;image-rendering:auto;shape-rendering:auto;text-rendering:auto;enable-background:accumulate" />
    <rect
       y="28.183315"
       x="33.866665"
       height="2.1166666"
       width="16.933332"
       id="rect909"
       style="color:#000000;clip-rule:nonzero;display:inline;overflow:visible;visibility:visible;opacity:1;isolation:auto;mix-blend-mode:normal;color-interpolation:sRGB;color-interpolation-filters:linearRGB;solid-color:#000000;solid-opacity:1;vector-effect:none;fill:#7020ff;fill-opacity:0.97115383;fill-rule:nonzero;stroke:none;stroke-width:4.37500048;stroke-linecap:round;stroke-linejoin:round;stroke-miterlimit:23;stroke-dasharray:none;stroke-dashoffset:0;stroke-opacity:0.17307691;marker:none;color-rendering:auto;image-rendering:auto;shape-rendering:auto;text-rendering:auto;enable-background:accumulate" />
    <rect
       style="color:#000000;clip-rule:nonzero;display:inline;overflow:visible;visibility:visible;opacity:1;isolation:auto;mix-blend-mode:normal;color-interpolation:sRGB;color-interpolation-filters:linearRGB;solid-color:#000000;solid-opacity:1;vector-effect:none;fill:#46423f;fill-opacity:1;fill-rule:nonzero;stroke:none;stroke-width:4.6291008;stroke-linecap:round;stroke-linejoin:round;stroke-miterlimit:23;stroke-dasharray:none;stroke-dashoffset:0;stroke-opacity:0.17307691;marker:none;color-rendering:auto;image-rendering:auto;shape-rendering:auto;text-rendering:auto;enable-background:accumulate"
       id="rect911"
       width="7.4083333"
       height="9.5249996"
       x="39.158333"
       y="26.066648"
       rx="1.0583334"
       ry="1.0583334" />
    <path
       style="color:#000000;clip-rule:nonzero;display:inline;overflow:visible;visibility:visible;opacity:1;isolation:auto;mix-blend-mode:normal;color-interpolation:sRGB;color-interpolation-filters:linearRGB;solid-color:#000000;solid-opacity:1;vector-effect:none;fill:none;fill-opacity:1;fill-rule:nonzero;stroke:#000000;stroke-width:0.26458333;stroke-linecap:butt;stroke-linejoin:round;stroke-miterlimit:23;stroke-dasharray:none;stroke-dashoffset:0;stroke-opacity:0.99038464;marker:none;color-rendering:auto;image-rendering:auto;shape-rendering:auto;text-rendering:auto;enable-background:accumulate"
       d="m 39.158333,28.183315 h 7.40833"
       id="path913"
       inkscape:connector-curvature="0" />
  </g>
</svg>
