<?xml version="1.0" encoding="UTF-8" standalone="no"?>
<!-- Created with Inkscape (http://www.inkscape.org/) -->

<svg
   xmlns:dc="http://purl.org/dc/elements/1.1/"
   xmlns:cc="http://creativecommons.org/ns#"
   xmlns:rdf="http://www.w3.org/1999/02/22-rdf-syntax-ns#"
   xmlns:svg="http://www.w3.org/2000/svg"
   xmlns="http://www.w3.org/2000/svg"
   xmlns:xlink="http://www.w3.org/1999/xlink"
   xmlns:sodipodi="http://sodipodi.sourceforge.net/DTD/sodipodi-0.dtd"
   xmlns:inkscape="http://www.inkscape.org/namespaces/inkscape"
   width="256"
   height="256"
   viewBox="0 0 256 256"
   id="svg2"
   version="1.1"
   inkscape:version="0.92.3 (2405546, 2018-03-11)"
   sodipodi:docname="Obcurinati.svg"
   inkscape:export-filename="/home/frode/Creations/Games/OGTatt/Resources/Textures/Decals/Obscurinati.png"
   inkscape:export-xdpi="96.000008"
   inkscape:export-ydpi="96.000008">
  <defs
     id="defs4">
    <linearGradient
       inkscape:collect="always"
       id="linearGradient1289">
      <stop
         style="stop-color:#f5cb8c;stop-opacity:0.61538464"
         offset="0"
         id="stop1285" />
      <stop
         id="stop1305"
         offset="0.55162978"
         style="stop-color:#f3bc6c;stop-opacity:0.27450982" />
      <stop
         style="stop-color:#a30ea5;stop-opacity:0"
         offset="1"
         id="stop1287" />
    </linearGradient>
    <radialGradient
       inkscape:collect="always"
       xlink:href="#linearGradient1289"
       id="radialGradient1291"
       cx="-640.9917"
       cy="1048.4985"
       fx="-640.9917"
       fy="1048.4985"
       r="22.804193"
       gradientTransform="matrix(1,0,0,0.52713177,0,495.80165)"
       gradientUnits="userSpaceOnUse" />
    <filter
       inkscape:collect="always"
       style="color-interpolation-filters:sRGB"
       id="filter1301"
       x="-0.045813953"
       width="1.0916279"
       y="-0.086911766"
       height="1.1738235">
      <feGaussianBlur
         inkscape:collect="always"
         stdDeviation="0.87062521"
         id="feGaussianBlur1303" />
    </filter>
  </defs>
  <sodipodi:namedview
     id="base"
     pagecolor="#da2fdb"
     bordercolor="#666666"
     borderopacity="1.0"
     inkscape:pageopacity="0"
     inkscape:pageshadow="2"
     inkscape:zoom="1.4142136"
     inkscape:cx="23.28471"
     inkscape:cy="168.75967"
     inkscape:document-units="px"
     inkscape:current-layer="layer1"
     showgrid="false"
     showborder="true"
     inkscape:window-width="1920"
     inkscape:window-height="1061"
     inkscape:window-x="0"
     inkscape:window-y="0"
     inkscape:window-maximized="1"
     fit-margin-top="0"
     fit-margin-left="0"
     fit-margin-right="0"
     fit-margin-bottom="0"
     units="px"
     inkscape:snap-global="false"
     inkscape:snap-page="true"
     inkscape:snap-object-midpoints="true"
     inkscape:snap-center="true" />
  <metadata
     id="metadata7">
    <rdf:RDF>
      <cc:Work
         rdf:about="">
        <dc:format>image/svg+xml</dc:format>
        <dc:type
           rdf:resource="http://purl.org/dc/dcmitype/StillImage" />
        <dc:title></dc:title>
      </cc:Work>
    </rdf:RDF>
  </metadata>
  <g
     inkscape:label="Layer 1"
     inkscape:groupmode="layer"
     id="layer1"
     transform="translate(762.79082,-945.5872)">
    <path
       sodipodi:type="star"
       style="color:#000000;clip-rule:nonzero;display:inline;overflow:visible;visibility:visible;opacity:1;isolation:auto;mix-blend-mode:normal;color-interpolation:sRGB;color-interpolation-filters:linearRGB;solid-color:#000000;solid-opacity:1;vector-effect:none;fill:#c87d4b;fill-opacity:0.96078431;fill-rule:nonzero;stroke:#000000;stroke-width:5.78112745;stroke-linecap:butt;stroke-linejoin:round;stroke-miterlimit:23;stroke-dasharray:none;stroke-dashoffset:0;stroke-opacity:1;marker:none;color-rendering:auto;image-rendering:auto;shape-rendering:auto;text-rendering:auto;enable-background:accumulate"
       id="path1258"
       sodipodi:sides="3"
       sodipodi:cx="-634.79083"
       sodipodi:cy="-1055.5266"
       sodipodi:r1="102.17491"
       sodipodi:r2="51.087463"
       sodipodi:arg1="1.5707963"
       sodipodi:arg2="2.6179939"
       inkscape:flatsided="true"
       inkscape:rounded="0"
       inkscape:randomized="0"
       d="m -634.79083,-953.3517 -88.48607,-153.2624 176.97214,0 z"
       inkscape:transform-center-y="-25.54367"
       transform="scale(1,-1)" />
    <use
       x="0"
       y="0"
       xlink:href="#g1275"
       id="use1277"
       inkscape:transform-center-x="-94.071328"
       inkscape:transform-center-y="-36.84461"
       width="100%"
       height="100%"
       transform="rotate(-120,-634.79083,1055.5266)" />
    <use
       x="0"
       y="0"
       xlink:href="#use1277"
       inkscape:transform-center-x="94.545979"
       inkscape:transform-center-y="-36.022389"
       id="use1279"
       transform="rotate(-120,-634.79083,1055.5266)"
       width="100%"
       height="100%" />
    <g
       id="g1275"
       transform="matrix(0.94943795,0,0,-0.57842953,-32.096336,1773.892)"
       style="fill:#000000;fill-opacity:1">
      <path
         inkscape:transform-center-x="-3.7846784e-06"
         sodipodi:type="star"
         style="color:#000000;clip-rule:nonzero;display:inline;overflow:visible;visibility:visible;opacity:1;isolation:auto;mix-blend-mode:normal;color-interpolation:sRGB;color-interpolation-filters:linearRGB;solid-color:#000000;solid-opacity:1;vector-effect:none;fill:#000000;fill-opacity:1;fill-rule:nonzero;stroke:none;stroke-width:6.08900023;stroke-linecap:butt;stroke-linejoin:round;stroke-miterlimit:23;stroke-dasharray:none;stroke-dashoffset:0;stroke-opacity:1;marker:none;color-rendering:auto;image-rendering:auto;shape-rendering:auto;text-rendering:auto;enable-background:accumulate"
         id="path1260"
         sodipodi:sides="3"
         sodipodi:cx="-634.79083"
         sodipodi:cy="-1100.4911"
         sodipodi:r1="107.61622"
         sodipodi:r2="53.808109"
         sodipodi:arg1="1.5707963"
         sodipodi:arg2="2.6179939"
         inkscape:flatsided="true"
         inkscape:rounded="0"
         inkscape:randomized="0"
         d="m -634.79083,-992.87487 -93.19838,-161.42433 186.39676,0 z"
         inkscape:transform-center-y="-26.903995"
         transform="matrix(0.05577757,0,0,-1,-598.88375,0)" />
      <path
         transform="matrix(0.05577757,0,0,-0.67786764,-567.88374,371.83712)"
         inkscape:transform-center-y="-18.237353"
         d="m -634.79083,-992.87487 -93.19838,-161.42433 186.39676,0 z"
         inkscape:randomized="0"
         inkscape:rounded="0"
         inkscape:flatsided="true"
         sodipodi:arg2="2.6179939"
         sodipodi:arg1="1.5707963"
         sodipodi:r2="53.808109"
         sodipodi:r1="107.61622"
         sodipodi:cy="-1100.4911"
         sodipodi:cx="-634.79083"
         sodipodi:sides="3"
         id="path1262"
         style="color:#000000;clip-rule:nonzero;display:inline;overflow:visible;visibility:visible;opacity:1;isolation:auto;mix-blend-mode:normal;color-interpolation:sRGB;color-interpolation-filters:linearRGB;solid-color:#000000;solid-opacity:1;vector-effect:none;fill:#000000;fill-opacity:1;fill-rule:nonzero;stroke:none;stroke-width:6.08900023;stroke-linecap:butt;stroke-linejoin:round;stroke-miterlimit:23;stroke-dasharray:none;stroke-dashoffset:0;stroke-opacity:1;marker:none;color-rendering:auto;image-rendering:auto;shape-rendering:auto;text-rendering:auto;enable-background:accumulate"
         sodipodi:type="star"
         inkscape:transform-center-x="-3.7846784e-06" />
      <path
         inkscape:transform-center-x="-3.7846784e-06"
         sodipodi:type="star"
         style="color:#000000;clip-rule:nonzero;display:inline;overflow:visible;visibility:visible;opacity:1;isolation:auto;mix-blend-mode:normal;color-interpolation:sRGB;color-interpolation-filters:linearRGB;solid-color:#000000;solid-opacity:1;vector-effect:none;fill:#000000;fill-opacity:1;fill-rule:nonzero;stroke:none;stroke-width:6.08900023;stroke-linecap:butt;stroke-linejoin:round;stroke-miterlimit:23;stroke-dasharray:none;stroke-dashoffset:0;stroke-opacity:1;marker:none;color-rendering:auto;image-rendering:auto;shape-rendering:auto;text-rendering:auto;enable-background:accumulate"
         id="path1264"
         sodipodi:sides="3"
         sodipodi:cx="-634.79083"
         sodipodi:cy="-1100.4911"
         sodipodi:r1="107.61622"
         sodipodi:r2="53.808109"
         sodipodi:arg1="1.5707963"
         sodipodi:arg2="2.6179939"
         inkscape:flatsided="true"
         inkscape:rounded="0"
         inkscape:randomized="0"
         d="m -634.79083,-992.87487 -93.19838,-161.42433 186.39676,0 z"
         inkscape:transform-center-y="-9.1540374"
         transform="matrix(0.05577757,0,0,-0.34024815,-536.88374,761.55103)" />
      <path
         inkscape:transform-center-x="-3.7846784e-06"
         sodipodi:type="star"
         style="color:#000000;clip-rule:nonzero;display:inline;overflow:visible;visibility:visible;opacity:1;isolation:auto;mix-blend-mode:normal;color-interpolation:sRGB;color-interpolation-filters:linearRGB;solid-color:#000000;solid-opacity:1;vector-effect:none;fill:#000000;fill-opacity:1;fill-rule:nonzero;stroke:none;stroke-width:6.08900023;stroke-linecap:butt;stroke-linejoin:round;stroke-miterlimit:23;stroke-dasharray:none;stroke-dashoffset:0;stroke-opacity:1;marker:none;color-rendering:auto;image-rendering:auto;shape-rendering:auto;text-rendering:auto;enable-background:accumulate"
         id="path1266"
         sodipodi:sides="3"
         sodipodi:cx="-634.79083"
         sodipodi:cy="-1100.4911"
         sodipodi:r1="107.61622"
         sodipodi:r2="53.808109"
         sodipodi:arg1="1.5707963"
         sodipodi:arg2="2.6179939"
         inkscape:flatsided="true"
         inkscape:rounded="0"
         inkscape:randomized="0"
         d="m -634.79083,-992.87487 -93.19838,-161.42433 186.39676,0 z"
         inkscape:transform-center-y="-9.1540374"
         transform="matrix(0.05577757,0,0,-0.34024815,-660.88374,761.55103)" />
      <path
         transform="matrix(0.05577757,0,0,-0.67786764,-629.88374,371.83712)"
         inkscape:transform-center-y="-18.237353"
         d="m -634.79083,-992.87487 -93.19838,-161.42433 186.39676,0 z"
         inkscape:randomized="0"
         inkscape:rounded="0"
         inkscape:flatsided="true"
         sodipodi:arg2="2.6179939"
         sodipodi:arg1="1.5707963"
         sodipodi:r2="53.808109"
         sodipodi:r1="107.61622"
         sodipodi:cy="-1100.4911"
         sodipodi:cx="-634.79083"
         sodipodi:sides="3"
         id="path1268"
         style="color:#000000;clip-rule:nonzero;display:inline;overflow:visible;visibility:visible;opacity:1;isolation:auto;mix-blend-mode:normal;color-interpolation:sRGB;color-interpolation-filters:linearRGB;solid-color:#000000;solid-opacity:1;vector-effect:none;fill:#000000;fill-opacity:1;fill-rule:nonzero;stroke:none;stroke-width:6.08900023;stroke-linecap:butt;stroke-linejoin:round;stroke-miterlimit:23;stroke-dasharray:none;stroke-dashoffset:0;stroke-opacity:1;marker:none;color-rendering:auto;image-rendering:auto;shape-rendering:auto;text-rendering:auto;enable-background:accumulate"
         sodipodi:type="star"
         inkscape:transform-center-x="-3.7846784e-06" />
    </g>
    <path
       style="color:#000000;clip-rule:nonzero;display:inline;overflow:visible;visibility:visible;opacity:1;isolation:auto;mix-blend-mode:normal;color-interpolation:sRGB;color-interpolation-filters:linearRGB;solid-color:#000000;solid-opacity:1;vector-effect:none;fill:#663012;fill-opacity:0.96078431;fill-rule:nonzero;stroke:none;stroke-width:13.25088787;stroke-linecap:butt;stroke-linejoin:round;stroke-miterlimit:23;stroke-dasharray:none;stroke-dashoffset:0;stroke-opacity:1;marker:none;color-rendering:auto;image-rendering:auto;shape-rendering:auto;text-rendering:auto;enable-background:accumulate"
       d="m -687.68117,1065.1982 c 62.29989,47.7481 104.24849,-3.5633 104.24849,-3.5633 0,0 -29.07328,15.6784 -52.33191,14.9657 -23.25863,-0.7126 -51.91658,-11.4024 -51.91658,-11.4024 z"
       id="path1281"
       inkscape:connector-curvature="0" />
    <ellipse
       style="color:#000000;clip-rule:nonzero;display:inline;overflow:visible;visibility:visible;opacity:1;isolation:auto;mix-blend-mode:normal;color-interpolation:sRGB;color-interpolation-filters:linearRGB;solid-color:#000000;solid-opacity:1;vector-effect:none;fill:url(#radialGradient1291);fill-opacity:1;fill-rule:nonzero;stroke:none;stroke-width:6.08900023;stroke-linecap:butt;stroke-linejoin:round;stroke-miterlimit:23;stroke-dasharray:none;stroke-dashoffset:0;stroke-opacity:1;marker:none;filter:url(#filter1301);color-rendering:auto;image-rendering:auto;shape-rendering:auto;text-rendering:auto;enable-background:accumulate"
       id="path1283"
       cx="-640.9917"
       cy="1048.4985"
       rx="22.804193"
       ry="12.020815"
       transform="matrix(1.7825667,-0.21080598,0,1.7825667,496.15346,-949.04929)" />
  </g>
</svg>
